697954 418770
373274 356
752635 791429
960457 869664
915970 166312
501186 357361
272067 270071
175774 27788
427846 586941
983166 821190
46153 989210
912557 497396
548553 611928
412330 706653
152775 810452
374451 572335
964159 304881
987138 577548
824490 212904
61064 343618
931100 50893
171123 334379
848401 524242
555662 589729
993594 983319
815073 907049
767481 101043
888628 455894
387790 317576
119742 194194
933398 198296
899614 298541
79546 119514
11277 639467
926808 360090
555039 601658
193631 218508
891243 179279
66869 112523
403283 476164
710660 502041
976132 580770
34433 323124
320624 574815
832947 283329
916269 268435
927015 139578
506036 241990
118544 662065
739340 522916
714091 68665
937516 280701
81639 721547
328670 28430
668880 53730
934639 85717
620217 965501
949142 43875
225451 639344
27382 666206
856802 370741
964701 321720
275601 749145
137287 515072
432301 814668
270953 585993
687880 809908
637980 260642
792904 403109
971243 148318
536806 661450
589790 524707
71710 289227
571650 688192
78019 583942
975242 182699
385888 987480
557411 209420
138806 88623
459100 795826
725614 943942
249850 486534
655119 897274
639947 463586
959914 864813
357320 409367
710527 457337
111465 689054
668084 958767
147046 533493
405466 117525
56347 556493
26032 428182
285258 164676
344615 19686
778343 213345
579167 455567
248140 377215
532908 340948
37761 29401
68701 579141
992629 971862
868374 311710
364918 491380
47075 739243
640547 104320
133065 523962
572714 266300
616936 273323
485334 328466
806527 580298
200582 718874
337020 182723
65388 295145
579728 210439
855204 51890
126477 707895
753412 465963
754069 435319
519466 957733
240870 24120
741762 337903
467197 975242
725945 217773
267638 956666
918655 724456
110955 62317
542652 941633
208701 209668
498599 8035
186316 330857
358792 562190
742664 464711
21298 859379
149106 312578
393550 906238
602803 524439
710904 227830
375911 878962
641408 740453
503961 957040
708238 828996
460934 168751
187999 748235
773684 625757
587029 163011
942501 219202
545932 436705
925412 138047
504370 657679
812427 877952
443464 565318
378132 919628
146851 734781
204225 871437
669432 718797
521994 767306
983872 346332
894339 36596
497211 522164
942278 43855
30314 542979
771416 10786
388660 573389
184590 858547
594243 37128
432434 366920
190546 548644
468213 922122
21613 32006
986637 130288
671131 389147
715592 915157
868912 247276
300479 405700
641222 181064
530386 349505
565966 382321
2078 437464
684369 329720
799475 794629
510963 615743
889439 485834
621356 671287
299717 304343
641552 89512
724635 606811
855968 478005
557212 152041
92088 980701
171346 970897
795714 702182
431264 167902
67682 905426
138460 300222
902965 789081
490926 567591
803577 304924
268702 332675
165223 643289
599237 669700
908858 447572
360185 786803
140877 312320
705817 466914
2993 170461
269158 931158
954202 558171
519973 78447
802490 817659
887290 463342
319096 862945
928812 959801
285407 401197
78550 601954
732986 207179
390228 572767
178985 786858
281845 215064
679750 355446
842818 78434
473069 73222
78887 876734
878187 171258
598684 747478
283297 736574
549450 442645
181526 966392
50193 609786
778175 669976
676149 790312
280886 551816
747433 392831
929658 742775
873079 26986
329636 462878
173795 10071
238419 315261
230929 686517
681805 145010
990565 112467
450441 166494
989479 886391
550158 555543
775373 116686
471956 779766
880933 641380
202053 904249
259774 631297
862139 202474
